{
  "realm": "taskmanager",
  "auth-server-url": "https://keycloak.zoach.ru/auth/",
  "ssl-required": "external",
  "resource": "tm_frontend",
  "public-client": true,
  "confidential-port": 0,
  "enable-cors": true
}